Tidy Data
…
---
## Wide -> Long

.small[

```r
longer <- census_wide %>% 
  pivot_longer(cols = hhincomeE:popM, # Cols to be affected
               names_to = c("variable"), # Name for the label column
               values_to = c("value")) # Name for the value column
longer
```

```
## # A tibble: 1,308 × 4
##    GEOID       NAME                                      variable   value
##    <chr>       <chr>                                     <chr>      <dbl>
##  1 13121000100 Census Tract 1; Fulton County; Georgia    hhincomeE 154808
##  2 13121000100 Census Tract 1; Fulton County; Georgia    hhincomeM  80059
##  3 13121000100 Census Tract 1; Fulton County; Georgia    popE        5160
##  4 13121000100 Census Tract 1; Fulton County; Georgia    popM         826
##  5 13121000201 Census Tract 2.01; Fulton County; Georgia hhincomeE 120982
##  6 13121000201 Census Tract 2.01; Fulton County; Georgia hhincomeM  41480
##  7 13121000201 Census Tract 2.01; Fulton County; Georgia popE        2233
##  8 13121000201 Census Tract 2.01; Fulton County; Georgia popM         250
##  9 13121000202 Census Tract 2.02; Fulton County; Georgia hhincomeE 182409
## 10 13121000202 Census Tract 2.02; Fulton County; Georgia hhincomeM 133772
## # ℹ 1,298 more rows
```
…
---
## Long -> Wide

.small[

```r
wider <- longer %>% 
  pivot_wider(id_cols = c(GEOID, NAME), 
              names_from = c("variable"),
              values_from = c("value")) 
wider
```

```
## # A tibble: 327 × 6
##    GEOID       NAME                              hhincomeE hhincomeM  popE  popM
##    <chr>       <chr>                                 <dbl>     <dbl> <dbl> <dbl>
##  1 13121000100 Census Tract 1; Fulton County; G…    154808     80059  5160   826
##  2 13121000201 Census Tract 2.01; Fulton County…    120982     41480  2233   250
##  3 13121000202 Census Tract 2.02; Fulton County…    182409    133772  4106   856
##  4 13121000400 Census Tract 4; Fulton County; G…    127500     31440  2014   270
##  5 13121000501 Census Tract 5.01; Fulton County…    103485     11638  4385   744
##  6 13121000502 Census Tract 5.02; Fulton County…    120357     53413  1779   298
##  7 13121000601 Census Tract 6.01; Fulton County…     76346     28684  4626   604
##  8 13121000602 Census Tract 6.02; Fulton County…     65391     22126  2960   559
##  9 13121000700 Census Tract 7; Fulton County; G…    103167     37596  2897   283
## 10 13121001001 Census Tract 10.01; Fulton Count…    100278     16354  4800   497
## # ℹ 317 more rows
```
…
